…
  committer_date : POSIXct[1:1], format: "2021-06-03 14:50:13"
  tree_sha       : chr "27a6b1e5de05446e800890dc02034940cca2b361"
  parents        : chr "eead248abc41f73ec208f37f26d6b3dbf0a99540"
  html_url       : chr "https://github.com/ChadGoymer/test-repository/commit/27b6d9ada6de1f39f25091a204aff"..
```
```r
read_github_csv(
  path = "mtcars.csv",
  ref  = "main",
  repo = "ChadGoymer/test-repository"
)
```
```
# GET https://api.github.com/repos/ChadGoymer/test-repository/git/blobs/d154466a828814fea6f9d1a1cefd8ca093517aaa
# A tibble: 32 x 11
     mpg   cyl  disp    hp  drat    wt  qsec    vs    am  gear  carb
 * <dbl> <dbl> <dbl> <dbl> <dbl> <dbl> <dbl> <dbl> <dbl> <dbl> <dbl>
 1  21       6  160    110  3.9   2.62  16.5     0     1     4     4
 2  21       6  160    110  3.9   2.88  17.0     0     1     4     4
 3  22.8     4  108     93  3.85  2.32  18.6     1     1     4     1
 4  21.4     6  258    110  3.08  3.22  19.4     1     0     3     1
 5  18.7     8  360    175  3.15  3.44  17.0     0     0     3     2
 6  18.1     6  225    105  2.76  3.46  20.2     1     0     3     1
 7  14.3     8  360    245  3.21  3.57  15.8     0     0     3     4
 8  24.4     4  147.    62  3.69  3.19  20       1     0     4     2
 9  22.8     4  141.    95  3.92  3.15  22.9     1     0     4     2
10  19.2     6  168.   123  3.92  3.44  18.3     1     0     4     4
# ... with 22 more rows
```
