…
This function can also be used to view the properties of other users:

```r
view_users()
```
```
# GET https://api.github.com/users?per_page=100
# GET https://api.github.com/users?per_page=100&since=135
# GET ...
# A tibble: 1,000 x 4
      id login        site_admin html_url                       
 * <int> <chr>        <lgl>      <chr>                          
 1     1 mojombo      FALSE      https://github.com/mojombo     
 2     2 defunkt      FALSE      https://github.com/defunkt     
 3     3 pjhyett      FALSE      https://github.com/pjhyett     
 4     4 wycats       FALSE      https://github.com/wycats      
 5     5 ezmobius     FALSE      https://github.com/ezmobius    
 6     6 ivey         FALSE      https://github.com/ivey        
 7     7 evanphx      FALSE      https://github.com/evanphx     
 8    17 vanpelt      FALSE      https://github.com/vanpelt     
 9    18 wayneeseguin FALSE      https://github.com/wayneeseguin
10    19 brynary      FALSE      https://github.com/brynary     
# ... with 990 more rows
```
…
